97.154207      10.758048
160.860395      12.593277
168.281190      13.019737
226.439691      13.102649
258.020418      13.573168
415.730723      14.552874
419.558220      15.123594
502.238629      15.068567
604.093661      15.965174
881.520690      16.473060
1333.420327      16.836685
1526.171063      17.164245
2044.492739      17.390116
2583.682903      18.094314
2839.702273      18.233184
3024.282675      18.278172